ENTRY,NAME,NRIC,MOBILE,EMAIL,VOUCHER,BCARD,DATE_CREATED
1 , TAN HUAN MIN , 901015145658 , 169579002 , huanmintan@gmail.com , BAAG3LFS , 6298435900211751 , 2018-10-10
2 , YEW PUI MUNG , 860111145414 , 162022419 , rachelyew11@gmail.com , BAA4F4FQ , 6298430400762966 , 2018-10-11
3 , LEE LI SUN , 760325015510 , 123988068 , Deonlee61@hotmail.com , BAADNTX4 , 6298430100328787 , 2018-10-16
4 , TESTING , 123456789012 , 123456789 , testing@testing.com.my , BAADD2F4 , 1111111111111111 , 2018-10-18
5 , CHIA KOK HOE , 951119146087 , 132066910 , sky.chia@hotmail.com , BAA4F3T3 , 6298432703306723 , 2018-11-05
6 , CHANG SEK BONG , 880912085907 , 126891286 , james.csb@hotmail.com , BAAC3GE4 , 6298432703256001 , 2018-11-13
7 , DIANA TENG , 630905135564 , 143972091 , dn_teng@yahoo.com , BAA7MW9W , 629843040048 , 2018-12-04
8 , ARMIE SHAM BINTI JAMAHURI , 770206055404 , 183587237 , armieshamjamahuri@gmail.com , BAA6TMLN , 6298435420339539 , 2018-12-14
9 , YAP SOON CHYE , 631210065277 , 168603638 , yapschye2013@gmail.com , BAALJMRM , 6298430400080716 , 2019-02-25