NAME , BCARD , NRIC , EXPDATE , CAR REGISTRAION NO , MOBILE , EMAIL , DATE CREATED
HO HAU YEE , 6298435913694770 , 860126145644 , 10/2019 , W1266U , 1111006108 , hyumina.zoey@gmail.com , 2019-02-01 08:57:45
MOHAMMAD ARIF SOBHAN BHUIYAN , 6298432901185952 , 921122998674 , 12/2019 , PDS3387 , 387055115 , arif_apece@hotmail.com , 2019-02-01 12:11:21
DZULFAKAR PAIMAN , 6298440306820959 , 751104715033 , 11/2019 , VAT2275 , 173965539 , dzulpaiman@gmail.com , 2019-02-01 12:50:55
ANG YEOW LAM , 6298435405307584 , 910415105393 , 02/2020 , BKG7883 , 173649428 , ayl_91@hotmail.com , 2019-02-01 15:00:18
DAVID YONG , 6298435360012799 , 710806715475 , 07/2019 , WXC6960 , 163270318 , yongchoonhwa@gmail.com , 2019-02-01 16:37:43
ROS ANIZA BINTI HASSAN , 6298435910583927 , 830119065606 , 11/2019 , BKl1053 , 176762800 , luv_aneeza@yahoo.com , 2019-02-01 16:44:03
GOH LIE YANG , 6298435401784794 , 840710085267 , 09/2019 , PKT2416 , 125300301 , castrol_oils@yahoo.com , 2019-02-01 23:39:31
LOW CHING YEUNG , 6298432901379480 , 850607145451 , 03/2019 , Aga3836 , 183956895 , ccyeung_nic@hotmail.com , 2019-02-02 03:56:58
MOHD SHUKRI SALEH , 6298435421879525 , 760308075343 , 06/2019 , Wvj9144 , 125924204 , mypadanglalang@gmail.com  , 2019-02-02 11:52:56
PHOON KAR WAI , 6298435418368037 , 880425105253 , 08/2019 , BPQ3346 , 172347057 , phoonkarwai@gmail.com , 2019-02-02 18:56:19
AZARUDINAMRI BIN MAT ZAINON , 6298433074661787 , 861117235239 , 10/2019 , PATRIOT5239 , 175129586 , armbree@yahoo.com , 2019-02-02 20:53:54
LIM RONG KAI , 6298432901886682 , 890407025443 , 01/2019 , PLW7842 , 105667681 , anthony_lrk89@hotmail.com , 2019-02-02 22:40:24
CHUAH CHONG THAI , 6298435408906184 , 770925087007 , 05/2019 , BNR282 , 125123906 , chongthai@yahoo.com , 2019-02-03 16:41:36
HAMIZAH BINTI ABU BAKAR , 6928435422721197 , 940713045058 , 11/2019 , MCY7613 , 182785762 , chamiey94@gmail.com , 2019-02-04 07:44:03
NUR ZAILA BINTI MD MASROR , 6298430400951445 , 820730065484 , 03/2019 , AKF5969 , 129477666 , zailamasror@gmail.com , 2019-02-04 11:53:57
DERIC TAN , 6298432902032674 , 830607105371 , 07/2019 , VBX8813 , 182216533 , derictansk@yahoo.com , 2019-02-05 11:17:01
ADNAN BIN MD RASIP , 6298435409219298 , 860208015317 , 11/2019 , RAB2167 , 149833640 , adnan_rasip@yahoo.com.my , 2019-02-05 14:13:36
SHARUL HAMIZAN BIN ABD RAZAK , 6298435421254927 , 940221055081 , 02/2019 , MDA5242 , 1163818868 , ayoi.5242@gmail.com , 2019-02-05 23:52:17
MOHD IERUWAN MOHAMED MOKHTAR , 6298435410400531 , 831102105995 , 03/2019 , WB8021J , 111121773 , iewan83@yahoo.com , 2019-02-06 07:33:21
HO HIN CHOY , 6298435100444468 , 650228106763 , 02/2019 , WQ100 , 122241191 , hinchoy@gmail.com , 2019-02-06 11:13:25
JASMINE DARYL RAJ , 6298430306046902 , 911214085116 , 12/2019 , JRW140 , 125266976 , jasmine.daryl@hotmail.com , 2019-02-06 13:34:06
MD FAUZI MD JAFFAR , 6298432901338395 , 770102015141 , 01/2020 , Jmh1527 , 176408007 , namohdaris@gmail.com , 2019-02-06 17:00:56
NOR AZMAN MOHD ARIS , 6298432901338395 , 831228015231 , 03/2019 , Jfy6094 , 127632007 , namohdaris@gmail.com , 2019-02-06 17:02:54
AHYA NADIRAH BINTI SABUDIN , 6298430306570349 , 840616085340 , 06/2019 , AGK188 , 125191230 , smileyz_7@yahoo.com , 2019-02-07 09:31:10
NURHAZWANI BT HAMDAN , 6298432901392913 , 850220055136 , 03/2019 , NCQ5419 , 192403935 , azwahamdan@yahoo.com , 2019-02-07 18:55:41
YEN YEE , 6298435912249923 , 810411206100 , 09/2019 , W3210M , 128967868 , penguin3826@gmail.com , 2019-02-07 22:27:07
MOHD AMMER , 6298435910412036 , 900409125735 , 03/2019 , Wc4419r , 149880854 , amerfacebook@yahoo.com , 2019-02-08 08:48:16
LEE VEI HAN , 6298431100033419 , 891007146443 , 03/2019 , WNG1189 , 176145438 , tommylee_1189@yahoo.com.my , 2019-02-08 15:30:49
WONG CHOW LAI , 6298435910164645 , 700321145188 , 02/2019 , WTS8573 , 193366321 , carlynwong@hotmail.com  , 2019-02-08 20:03:00
GAN SK , 6298432900287759 , 800212105301 , 07/2019 , BJP9659 , 163562378 , wywy2020@yahoo.com , 2019-02-08 21:41:06
CHOONG CHING CHEONG , 6298430400895790 , 581219715085 , 08/2019 , WRS330 , 122383993 , kuljec@gmail.com , 2019-02-09 07:02:27
ANTHONY VINCENT  , 6298435404587939 , 660517086235 , 03/2019 , PJB3620 , 123833065 , avms01@yahoo.com , 2019-02-09 10:29:51
CHAN KUOK SOON , 6298430400143274 , 881014525741 , 03/2019 , QRJ5020 , 168726403 , alvisonoo52@yahoo.com , 2019-02-09 16:14:52
GAN CHOR WEE , 6298432900650469 , 800628105541 , 08/2019 , BGE8576 , 183685788 , tension_g@hotmail.com , 2019-02-10 08:36:04
CATHERINE TAM , 6298430306723500 , 820207085552 , 02/2019 , WQB2532 , 122885100 , ystamster@gmail.com , 2019-02-11 11:49:29
DENNIS NG , 6298432701998166 , 850508075515 , 04/2019 , PJL1100 , 164101218 , ngys85@gmail.com , 2019-02-11 13:13:14
AHMAD SYAARANI MOHD JAMALUDIN , 6298432901941065 , 850804086067 , 03/2019 , AGB863 , 104675806 , syaaranijamaludin@gmail.com , 2019-02-11 15:53:18
NG GEK SIEW , 6298435409386246 , 670404086182 , 01/2020 , WWG8092 , 163162042 , angiengs_06@yahoo.com , 2019-02-11 16:04:51
DESMOND LIM , 6298432900142152 , 850611145315 , 01/2020 , LD3968 , 123958846 , desmond.limf@gmail.com , 2019-02-11 16:35:09
NORISMA BINTI TULIPS  , 6298430100030912 , 850910016556 , 02/2019 , WXU1352 , 143898598 , atomenrenji28@gmail.com , 2019-02-11 17:43:40
MOHAMAD FADHIL BIN AZIMAN , 6298432703149198 , 940409106565 , 06/2019 , WMR599 , 172474961 , vetivera35@icloud.com , 2019-02-11 19:54:49
NOR ASHIKIN , 6298432703240849 , 840505055034 , 05/2019 , Bkt6735 , 123550175 , shikin_48@yahoo.com , 2019-02-11 20:07:04
CHIA KAI SUAN , 6298430100276648 , 811015145122 , 08/2019 , vam7854 , 601820006 , carreenchia@gmail.com , 2019-02-12 10:20:09
LAU JUIN ZHUEN , 6298430100287314 , 930510145519 , 09/2019 , WYK7744 , 173783222 , jzhuen@gmail.com , 2019-02-12 10:23:14
TOK WEE KIAN , 6298435407243035 , 860103236025 , 03/2019 , JJG3362 , 142275486 , tokweekian@hotmail.com , 2019-02-12 11:36:36
NATALIE , 6298435914416157 , 810110105386 , 03/2019 , VA8887 , 123258090 , natalie.publicis@gmail.com , 2019-02-12 18:58:28
WOON MAN SEONG , 6298436120023381 , 550831065267 , 06/2019 , WYP6204 , 1120090288 , mcabk@yahoo.com , 2019-02-12 23:28:44
THYE CHEE FONG , 6298436120024538 , 560205065066 , 01/2020 , WSG9688 , 133777318 , woonms55@gmail.com , 2019-02-12 23:34:04
KUMARAVEL A/L DORAISAMY , 6298436200483307 , 630530085379 , 03/2019 , WDF5838 , 175547778 , johnkumar_indra@yahoo.com.my , 2019-02-13 08:06:26
JASMINE DARYL RAJ , 6298430306046902 , 911214085116 , 12/2019 , AJX5114 , 125266976 , jasmine.daryl@hotmail.com , 2019-02-13 08:35:52
HAFIZUL SHAH BIN YAHYA , 6298432061510346 , 940531105785 , 01/2020 , kbt8655 , 189885814 , shahhafizul@gmail.com , 2019-02-13 10:40:14
MUHAMMAD SYAFIQ YADIY BIN HASNOL YADI , 6298435402032128 , 901029147005 , 05/2019 , WC8105U , 133005242 , syafiqyadiy@gmail.com , 2019-02-13 12:43:04
KOAY HEAN SEANG , 6298435409053382 , 800516075413 , 08/2019 , PNP3863 , 124221021 , koayheanseang@hotmail.com , 2019-02-13 14:14:09
ROHANI BUANG , 6298436700089919 , 841022105046 , 04/2019 , WSH1960 , 139819846 , rr_honey84@yahoo.com , 2019-02-13 16:55:15
TAN CHUN WAN  , 6298435407989884 , 820512146219 , 07/2019 , VAE9630 , 126893698 , junyuan05@gmail.com , 2019-02-13 19:17:03
LIEW SAID CHUNG , 6298430306714020 , 900515085335 , 05/2019 , 56385196 , 165016235 , stephenliew09@gmail.com , 2019-02-13 21:05:20
PHUA CHAY HOON  , 6298435906495664 , 620604665028 , 06/2019 , BHR4199 , 162806896 , sallypch@gmail.com , 2019-02-13 23:33:10
TAY LANG WEE , 6298435910531496 , 890109015845 , 02/2019 , VV796 , 1110866789 , taylangwee@hotmail.com , 2019-02-14 00:16:21
LIM SU JEE , 6298435412376192 , 840328086357 , 02/2019 , JNJ7254 , 167200082 , limsujee@gmail.com , 2019-02-14 01:22:29
LIM SU JEE , 6298435412376192 , 840328086357 , 07/2020 , JEP7700 , 167200082 , limsujee@gmail.com , 2019-02-14 01:25:12
LIM SU JEE , 6298435412376192 , 840328086357 , 01/2020 , JRD7312 , 167200082 , limsujee@gmail.com , 2019-02-14 01:27:52
ERH SUK CHUAN , 6298435412376192 , 820415015284 , 07/2019 , JQG5858 , 167200082 , limsujee@gmail.com , 2019-02-14 01:58:26
CHEW YEW HOCK , 6298435200074165 , 660521105013 , 07/2019 , BHS2996 , 123320998 , yewhockchew@yahoo.com , 2019-02-14 05:58:08
HOW PENG OOI , 6298435409180656 , 800922145659 , 01/2020 , W9768G , 123402234 , batisveron@yahoo.com.hk , 2019-02-14 11:04:07
ABD QUDDUS BIN MAT SAID , 6298435413009594 , 830801035135 , 05/2019 , WVA1182 , 122856468 , qerd108@gmail.com , 2019-02-14 18:25:58
CHEANG MEI FOON , 6298430304863928 , 771218145524 , 02/2019 , JRT6351 , 162721903 , meifoon@hotmail.com , 2019-02-15 11:27:18
SIA SEE BEE , 6298435100691811 , 850902045234 , 12/2019 , mca9292 , 162450131 , jasmine.sia85@gmail.com , 2019-02-16 17:30:07
ONG DEE SHEN , 6298435417192271 , 981001025623 , 03/2019 , PGF7512 , 149614816 , deeshen98@gmail.com , 2019-02-17 00:18:30
NUR SYAFINAZ BINTI ROSNI , 6298435421552775 , 970829015106 , 08/2019 , SYA1242 , 112676274 , nsyafinazrosni@gmail.com , 2019-02-17 11:29:13
NURULMUNA MOHD GHOZALI , 6298430304779199 , 871110025190 , 07/2019 , BMT2021 , 193306056 , munaghoz@yahoo.com , 2019-02-17 11:56:16
TAN CHI MING , 6298435409422298 , 820505125911 , 03/2019 , PHR869 , 164868973 , krian0505@gmail.com , 2019-02-17 19:39:15
ELLEN OH , 6298435405344835 , 871026025884 , 01/2019 , Plx1194 , 125014857 , elen254@yahoo.com , 2019-02-18 12:55:33
PANG LEE GOON , 6298435370103802 , 880921565988 , 06/2019 , WC3863X , 162578718 , gracep921@gmail.com , 2019-02-18 21:19:09
MOHD NIZAM BIN AHMAD TAHIR , 6298435420138345 , 830926146293 , 07/2019 , Wxm4959 , 176521029 , rossazham2@gmail.com , 2019-02-19 16:52:02
NG KHAY BEE , 6298435900773835 , 800611105326 , 022019 , WUY1621 , 193234836 , khaybeeng@gmail.com , 2019-02-20 12:12:56
NG KHAY BEE , 6298435900773835 , 800611105326 , 07/2019 , VBV8155 , 193234836 , khaybeeng@gmail.com , 2019-02-20 12:15:41
ZARITH SOFIAH BINTI CHAINURI@JANURI , 6298430305217868 , 860717235780 , 12/2019 , Jlx7204 , 177689251 , zarith86_upm@yahoo.com , 2019-02-20 12:53:05
AHMAD MARWAN HAKIM BIN MOHD RAJI , 6298435910364062 , 930506145807 , 02/2019 , W114P , 192749014 , marwan935@gmail.com , 2019-02-21 13:37:34
KULJIT SINGH A/L TARA SINGH , 6298435360063313 , 600722086061 , 12/2019 , WUR1771 , 2147483647 , kssandhu717@gmail.com , 2019-02-21 16:10:45
KULJIT SINGH A/L TARA SINGH , 6298435360063313 , 600722086061 , 02/2019 , AFR325 , 122267171 , kssandhu717@gmail.com , 2019-02-21 16:13:25
RITA MAHINDER , 6298435360063313 , 631225035310 , 08/2019 , WA2722M , 122267171 , kssandhu717@gmail.com , 2019-02-21 16:15:16
NANA NURZIANA BINTI ZAINUDDIN , 6298435424210348 , 970213235098 , 11/2019 , WRA9333 , 1137468248 , nananurziana@yahoo.com , 2019-02-21 18:46:58
EDISON881127 , 6298432177661058 , 881127435267 , 08/2019 , G1M816 , 163709979 , edison881127@live.com , 2019-02-21 19:44:30
LOH LIANG CHUAN , 6298432701959697 , 850309015173 , 03/2019 , Jmb8938 , 127767699 , smallboat85@gmail.com , 2019-02-22 00:19:53
KHALIJAH BINTI ABU , 6298430400463771 , 530225085630 , 02/2019 , WUT1437 , 124040435 , mueezaempire@gmail.com , 2019-02-22 11:13:39
ABDUL MOHD FAIDZAL ABDUR HAMAN , 6298435423309646 , 880527115081 , 01/2019 , DCP7634 , 129377494 , peja5081@gmail.com , 2019-02-22 18:31:05
ABD KHALIM MOHAMED SAPIE , 6298430303051491 , 781129105263 , 02/2020 , VQ7960 , 142250825 , khalimsapie@gmail.com , 2019-02-22 19:18:49
ZURINA OMAR , 6298435912339187 , 830918105002 , 02/2019 , WQS189 , 196203218 , sshoneyb@yahoo.com , 2019-02-22 22:49:26
ANIZA BINTI OTHMAN , 6298430100256897 , 810314075158 , 06/2019 , PATRIOT5848 , 124494614 , anieza_nieza@yahoo.com , 2019-02-23 09:32:52
YONG SHEK YEE , 6298435900241957 , 841014105038 , 03/2019 , WNW8184 , 123607248 , ysyee1014@hotmail.com , 2019-02-23 09:43:15
TAN PHEI PHEI , 6298435105230052 , 760206035420 , 03/2019 , DN5573 , 125602506 , eutpp@yahoo.com , 2019-02-23 13:07:41
SEE TOH LAI WAN , 6298435911515340 , 730720085204 , 08/2019 , AEC9024 , 126726399 , st.line1@gmail.com , 2019-02-23 13:36:30
QHUQ , 6298430400518827 , 950424265038 , 03/2019 , Pk7377 , 1116568896 , kyq.qhin@hotmail.com , 2019-02-23 15:08:37
HEE , 6298435405502010 , 946526265864 , 03/2019 , Pfs9658 , 1116568896 , Sorrysorry89@hotmail.com , 2019-02-23 15:10:38
CHUAH LEY YEE  , 6298435409650153 , 920807085466 , 02/2020 , AKA2585 , 165038673 , leyeechuah@hotmail.com  , 2019-02-23 15:16:56
LIM LIAN SENG , 6298433024439912 , 710513045121 , 11/2019 , WMW8625 , 166429399 , wilhelmlim@gmail.com , 2019-02-23 16:09:29
WONG JYH JUAN , 6298435422457222 , 790913085563 , 12/2018 , W6228H , 133603218 , jyhjuan@gmail.com , 2019-02-23 20:29:17
KHAW SAW LEAN , 6298430303101601 , 740127075610 , 04/2019 , BLT8623 , 192631628 , linakhaw@gmail.com , 2019-02-23 23:20:18
YONG WAIYIN , 6298435409276959 , 800626075449 , 02/2019 , PLY8892 , 125250626 , yongwaiyin@hotmail.com , 2019-02-24 09:11:47
GOH WAN SIANG , 6298430401023012 , 940317015404 , 09/2019 , JME4972 , 182318699 , wsnicole0317@gmail.com , 2019-02-24 11:44:23
AZRUL BIN ABDUL HALIM , 6298430305774355 , 870416145561 , 01/2020 , VCR8791 , 173639360 , aah.gmtt@gmail.com , 2019-02-24 17:39:36
JOSEPH CHANDRA , 6298435103633208 , 781103145005 , 03/2019 , BEK308 , 123871005 , joseph.chandra@gmail.com , 2019-02-24 18:17:50
SIM POH LING , 6298430401021834 , 611113105662 , 03/2019 , WWK3837 , 126068757 , jsjojo@gmail.com , 2019-02-24 21:32:36
LEE MINHWA , 6298432900673776 , 700322015799 , 05/2019 , JQD895 , 1128759161 , superminhwa@gmail.com , 2019-02-24 23:58:54
DING DE RONG , 6298435990458164 , 940513146655 , 04/2019 , WC1891T , 178846518 , dingdelon@hotmail.com , 2019-02-25 00:41:30
MUHAMMAD ALIF BIN SAYUKI , 6298435420021541 , 940228035745 , 01/2020 , JSN4758 , 179009655 , alifsalju09@gmail.com , 2019-02-25 01:45:46
WEE SAN TEO , 6298430302003188 , 810322015622 , 10/2019 , WKE2878 , 123965361 , fongtohlim@gmail.com , 2019-02-25 10:24:28
TEO WEE SAN , 6298430302003188 , 810322015622 , 07/2019 , WQU6891 , 123965361 , fongtohlim@gmail.com , 2019-02-25 10:26:39
AHMAD ADHWA ASYRAF , 6298435412561686 , 900820015173 , 01/2020 , wa2758v , 189097485 , mr.adhwa@yahoo.com , 2019-02-25 13:38:34
HARAINI , 6298432900625321 , 700419105344 , 03/2020 , WWL5147 , 173382238 , hmustapa@kpmg.com.my , 2019-02-26 11:19:38
GOH MENG KUAN , 6298430302241879 , 811010045229 , 07/2019 , BNH8850 , 126530909 , calvin_mk@yahoo.com , 2019-02-26 13:56:37
WONG MUN HON  , 6298430400150477 , 720310055193 , 07/2019 , Nce1813 , 163252308 , Simewong@gmail.com , 2019-02-26 21:13:16
WONG KIN SEONG , 6298435417777782 , 900626105765 , 03/2019 , WVB5219 , 122400805 , kswong4u@hotmail.com , 2019-02-26 21:41:08
LEE GUAN SENG , 6298435912177595 , 831105145706 , 21/02/2019 , VS3901 , 163473490 , leepolar@hotmail.com , 2019-02-27 11:13:00
SURESH KUMAR , 6298430304959130 , 630522065431 , 03/2019 , WPB7100 , 122211822 , sgsk63@yahoo.com , 2019-02-27 13:13:20
LIEW YI YUEN , 6298430401025249 , 790516145518 , 03/2019 , WSH7738 , 122028312 , yiyuenliew@gmail.com , 2019-02-27 15:08:23
NG CHO CHO , 6298435910721998 , 910529105615 , 01/2019 , Vcp3742 , 186472583 , Kianwee8888@outlook.com , 2019-02-27 19:55:20
NG WEI CHEE , 6298430400240716 , 830211105842 , 04/2019 , NCB8461 , 183660949 , cheers.PC.kitty@Gmail.com , 2019-02-28 02:41:05
DIVEENASH PERUMAL , 6298430401027849 , 861123595441 , 03/2019 , JMC927 , 177992078 , nashprem@gmail.com , 2019-02-28 11:46:34
NURUL NADIAH MOHAMMAD , 6298435408034763 , 860917235726 , 10/2019 , WRW6992 , 179891563 , nadyahmohammad@gmail.com , 2019-02-28 19:44:20
LEE TIAN SENG , 6298435412377091 , 600510016109 , 03/2019 , JJQ887 , 127139888 , ts_lee08@yahoo.com , 2019-02-28 23:26:14
YOCI LEE , 6298435412377075 , 960506015188 , 03/2019 , JEJ4096 , 143117451 , yoci1996@yahoo.com , 2019-02-28 23:33:59